<svg width="20" height="20" viewBox="0 0 20 20" xmlns="http://www.w3.org/2000/svg">
    <path d="M10 20c5.47 0 10-4.54 10-10C20 4.53 15.46 0 9.99 0 4.53 0 0 4.53 0 10c0 5.46 4.54 10 10 10zm0-1.667A8.293 8.293 0 0 1 1.676 10c0-4.627 3.687-8.333 8.314-8.333A8.316 8.316 0 0 1 18.333 10 8.295 8.295 0 0 1 10 18.333zM4.873 11.06H9.99a.676.676 0 0 0 .686-.686V3.765a.674.674 0 0 0-.686-.677.666.666 0 0 0-.676.677v5.931H4.873a.668.668 0 0 0-.687.677.67.67 0 0 0 .687.686z" fill="#FFF" fill-rule="nonzero"/>
</svg>
